Project 1
…
I chose to run a full join to merge my datasets together. For the MathAch dataset, there were 7185 observations and in the MathAchSchool dataset, there were 160 observations. For the new df(NewMatchAch), there were no observations that were dropped. All the variables from the two datasets merged together to give an overall greater view of the data since the schools in both datasets are correlated. They share the same school ID. The difference is in MathAchieve, it shows every student individually and their minority, sex, SES, etc. 

Tidying:

library(tidyverse)
longdata <- NewMathAch %>% pivot_longer(cols = c("MEANSES.x", 
    "MEANSES.y"))
print(longdata)

## # A tibble: 14,370 x 12
##    School Minority Sex      SES MathAch  Size Sector PRACAD DISCLIM HIMINTY
##     <dbl> <fct>    <fct>  <dbl>   <dbl> <dbl> <fct>   <dbl>   <dbl> <fct>  
##  1     59 No       Fema… -1.53     5.88  1061 Public   0.46   -1.06 0      
##  2     59 No       Fema… -1.53     5.88  1061 Public   0.46   -1.06 0      
##  3     59 No       Fema… -0.588   19.7   1061 Public   0.46   -1.06 0      
##  4     59 No       Fema… -0.588   19.7   1061 Public   0.46   -1.06 0      
##  5     59 No       Male  -0.528   20.3   1061 Public   0.46   -1.06 0      
##  6     59 No       Male  -0.528   20.3   1061 Public   0.46   -1.06 0      
##  7     59 No       Male  -0.668    8.78  1061 Public   0.46   -1.06 0      
##  8     59 No       Male  -0.668    8.78  1061 Public   0.46   -1.06 0      
##  9     59 No       Male  -0.158   17.9   1061 Public   0.46   -1.06 0      
## 10     59 No       Male  -0.158   17.9   1061 Public   0.46   -1.06 0      
## # … with 14,360 more rows, and 2 more variables: name <chr>, value <dbl>

longdata %>% pivot_wider(names_from = "name", values_from = "value")

## # A tibble: 7,185 x 12
##    School Minority Sex      SES MathAch  Size Sector PRACAD DISCLIM HIMINTY
##     <dbl> <fct>    <fct>  <dbl>   <dbl> <dbl> <fct>   <dbl>   <dbl> <fct>  
##  1     59 No       Fema… -1.53    5.88   1061 Public   0.46   -1.06 0      
##  2     59 No       Fema… -0.588  19.7    1061 Public   0.46   -1.06 0      
##  3     59 No       Male  -0.528  20.3    1061 Public   0.46   -1.06 0      
##  4     59 No       Male  -0.668   8.78   1061 Public   0.46   -1.06 0      
##  5     59 No       Male  -0.158  17.9    1061 Public   0.46   -1.06 0      
##  6     59 No       Male   0.022   4.58   1061 Public   0.46   -1.06 0      
##  7     59 No       Fema… -0.618  -2.83   1061 Public   0.46   -1.06 0      
##  8     59 No       Male  -0.998   0.523  1061 Public   0.46   -1.06 0      
##  9     59 No       Fema… -0.888   1.53   1061 Public   0.46   -1.06 0      
## 10     59 No       Male  -0.458  21.5    1061 Public   0.46   -1.06 0      
## # … with 7,175 more rows, and 2 more variables: MEANSES.x <dbl>,
## #   MEANSES.y <dbl>
…
## # A tibble: 4 x 3
## # Groups:   Minority [2]
##   Minority Sector   `mean(subMEANSES, na.rm = T)`
##   <fct>    <fct>                            <dbl>
## 1 No       Public                          0.224 
## 2 No       Catholic                       -0.0576
## 3 Yes      Public                         -0.0837
## 4 Yes      Catholic                       -0.420

sub_NewMathAch %>% group_by(Sex, MathAch) %>% summarize(min(SES))

## # A tibble: 6,511 x 3
## # Groups:   Sex [2]
##    Sex   MathAch `min(SES)`
##    <fct>   <dbl>      <dbl>
##  1 Male    -2.83     -0.878
##  2 Male    -2.72     -1.12 
##  3 Male    -2.66      0.712
##  4 Male    -2.63     -0.858
##  5 Male    -2.56     -0.188
##  6 Male    -2.54     -0.368
##  7 Male    -2.54     -0.948
##  8 Male    -2.5       0.202
##  9 Male    -2.50      0.202
## 10 Male    -2.48      0.202
## # … with 6,501 more rows

sd(sub_NewMathAch$SES)

## [1] 0.7793552

sub_NewMathAch %>% group_by(School) %>% summarize(Size = n())

## # A tibble: 160 x 2
##    School  Size
##     <dbl> <int>
##  1      1    14
##  2      2    32
##  3      3    48
##  4      4    37
##  5      5    53
##  6      6    25
##  7      7    44
##  8      8    34
##  9      9    51
## 10     10    30
## # … with 150 more rows
…
